p	1	481
p	8	153
p	14	305
p	19	195
p	26	490
p	29	362
p	30	344
p	35	195
p	36	202
p	42	439
p	50	247
p	52	136
p	70	184
p	71	573
p	84	11
p	86	119
p	87	233
p	91	95
p	101	80
p	102	42
p	102	268
p	105	176
p	112	490
p	139	406
p	139	478
p	143	328
p	145	26
p	149	83
p	158	141
p	163	130
p	165	504
p	171	87
p	171	518
p	178	426
p	181	333
p	182	273
p	186	249
p	191	441
p	192	289
p	195	174
p	196	1
p	197	230
p	198	438
p	211	308
p	212	179
p	216	489
p	221	165
p	222	377
p	224	31
p	224	294
p	229	165
p	232	473
p	239	47
p	243	86
p	244	118
p	246	327
p	249	573
p	251	26
p	257	9
p	257	433
p	257	436
p	260	313
p	261	439
p	268	38
p	270	143
p	276	158
p	277	64
p	288	362
p	304	196
p	304	522
p	305	152
p	309	488
p	310	224
p	314	88
p	316	513
p	324	52
p	329	36
p	332	424
p	342	566
p	361	304
p	374	14
p	385	315
p	387	223
p	391	393
p	392	240
p	392	393
p	392	497
p	394	204
p	395	393
p	395	398
p	396	393
p	397	381
p	401	311
p	403	393
p	404	77
p	404	369
p	408	176
p	411	47
p	418	308
p	426	108
p	426	518
p	441	38
p	442	243
p	449	104
p	454	14
p	461	256
p	463	368
p	466	8
p	472	221
p	482	371
p	485	304
p	488	151
p	496	460
p	500	108
p	500	375
p	501	140
p	503	460
p	509	301
p	511	516
p	519	357
p	521	293
p	521	566
p	525	323
p	526	79
p	534	277
p	539	81
p	539	179
p	539	207
p	539	271
p	544	177
p	546	3
p	549	71
p	555	19
p	570	104
p	584	563
p	587	7
p	598	88
p	602	131
p	623	411
p	678	47
p	700	565
p	765	225
p	793	90
p	795	518
p	813	212
p	824	401
p	829	381
p	831	268
p	834	162
p	840	153
p	847	306
p	857	287
p	859	305
p	859	494
p	882	158
p	884	70
p	899	477
p	900	281
p	904	182
p	910	363
p	914	154
p	929	20
p	933	14
p	939	60
p	942	496
p	943	362
p	946	256
p	948	250
p	948	469
p	958	243
p	969	168
p	970	62
p	979	417
p	983	83
p	984	297
p	992	44
p	992	474
p	1003	555
p	1005	125
p	1011	96
p	1020	305
p	1025	292
p	1025	350
p	1027	214
p	1031	145
p	1032	302
p	1047	490
p	1054	195
p	1062	523
p	1071	197
p	1071	278
p	1074	117
p	1076	92
p	1078	163
p	1082	177
p	1083	274
p	1084	452
p	1091	118
p	1091	220
p	1093	29
p	1094	328
p	1097	526
p	1101	350
p	1104	14
p	1111	434
p	1112	247
p	1115	462
p	1117	137
p	1119	103
p	1119	572
p	1124	304
p	1133	1
p	1137	9
p	1146	131
p	1148	474
p	1148	544
